\relax 
\catcode`.\active
\catcode`\.=12
\catcode`"\active
\catcode`<\active
\catcode`>\active
\es@quoting
\catcode`'\active
\select@language{spanish}
\@writefile{toc}{\select@language{spanish}}
\@writefile{lof}{\select@language{spanish}}
\@writefile{lot}{\select@language{spanish}}
\@writefile{toc}{\contentsline {chapter}{Introducci\'on}{9}}
\@writefile{lof}{\addvspace {10\p@ }}
\@writefile{lot}{\addvspace {10\p@ }}
\@writefile{toc}{\contentsline {section}{El proyecto}{10}}
\@writefile{toc}{\contentsline {section}{Forma de trabajo}{10}}
\@writefile{toc}{\contentsline {subsection}{Esquema de colaboraci\'on}{11}}
\@writefile{toc}{\contentsline {subsection}{Manejo de referencias}{12}}
\@writefile{toc}{\contentsline {section}{Implementaci\'on t\'ecnica}{15}}
\@writefile{toc}{\contentsline {section}{Acerca de los autores}{18}}
\@writefile{toc}{\contentsline {subsection}{Beatriz Busaniche (Argentina)}{18}}
\@writefile{toc}{\contentsline {subsection}{H\'ector Colina (Venezuela)}{19}}
\@writefile{toc}{\contentsline {subsection}{Carolina Flores (Costa Rica)}{19}}
\@writefile{toc}{\contentsline {subsection}{Antonio Galindo (M\'exico)}{20}}
\@writefile{toc}{\contentsline {subsection}{Alejandro Miranda (M\'exico)}{20}}
\@writefile{toc}{\contentsline {subsection}{Sergio Ord\'o\~nez (M\'exico)}{20}}
\@writefile{toc}{\contentsline {subsection}{Lila Pagola (Argentina)}{21}}
\@writefile{toc}{\contentsline {subsection}{Marko Txopitea (Euskal Herria)}{21}}
\@writefile{toc}{\contentsline {subsection}{\'Erika Valverde (Costa Rica)}{22}}
\@writefile{toc}{\contentsline {subsection}{Gunnar Wolf (M\'exico)}{22}}
\@writefile{toc}{\contentsline {part}{I\hspace  {1em}Software y medios libres}{25}}
\@writefile{toc}{\contentsline {chapter}{Software libre y construcci\'on democr\'atica de la sociedad}{27}}
\@writefile{lof}{\addvspace {10\p@ }}
\@writefile{lot}{\addvspace {10\p@ }}
\@writefile{toc}{\contentsline {section}{Introducci\'on}{28}}
\@writefile{toc}{\contentsline {subsection}{La historia del conocimiento}{28}}
\@writefile{toc}{\contentsline {subsection}{El c\'omputo como expresi\'on del conocimiento}{32}}
\@writefile{toc}{\contentsline {subsection}{\IeC {\textquestiondown }Qu\'e es una sociedad democr\'atica?}{34}}
\@writefile{toc}{\contentsline {subsection}{Del software al conocimiento}{37}}
\@writefile{toc}{\contentsline {section}{El software libre en tanto movimiento social}{40}}
\@writefile{toc}{\contentsline {section}{Conclusiones}{45}}
\@writefile{toc}{\contentsline {chapter}{Esquemas permisivos de licenciamiento en la creaci\'on art\IeC {\'\i }stica}{47}}
\@writefile{toc}{\contentsline {section}{Introducci\'on}{47}}
\@writefile{toc}{\contentsline {section}{Posiciones respecto de los derechos de autor y de copia en el arte}{49}}
\@writefile{lof}{\contentsline {figure}{\numberline {1}{\ignorespaces Ejemplo de imagen con marca de agua, para obligar a los visitantes a pedir permiso de uso.}}{50}}
\newlabel{fig1}{{1}{50}}
\@writefile{lof}{\contentsline {figure}{\numberline {2}{\ignorespaces \textit  {Peintre de peintres}, de Antoine Moreau. Un experimento sobre la creaci\'on colectiva en soporte material (pintura).}}{52}}
\newlabel{fig2}{{2}{52}}
\@writefile{toc}{\contentsline {subsection}{Actitud copyleft en el arte}{53}}
\@writefile{toc}{\contentsline {subsection}{Reacciones desde la industria cultural y las gestoras de derechos de autor}{54}}
\@writefile{toc}{\contentsline {section}{Cr\IeC {\'\i }tica a la noci\'on de autor: antecedentes en la historia del arte}{54}}
\@writefile{lof}{\contentsline {figure}{\numberline {3}{\ignorespaces Tatlin y Heartfield sostienen un cartel que dice: ``El arte ha muerto, viva el arte de la m\'aquina de Tatlin''; 1920.}}{56}}
\newlabel{fig3}{{3}{56}}
\@writefile{toc}{\contentsline {section}{Efecto copyleft avant la lettre: c\'omo explicar el copyleft cuando todos lo practicamos}{56}}
\@writefile{toc}{\contentsline {subsection}{1984, m\'as ac\'a de Orwell: Stallman y Jobs}{57}}
\@writefile{toc}{\contentsline {subsection}{Los problemas de la naturalizaci\'on: el doble est\'andar}{61}}
\@writefile{toc}{\contentsline {subsection}{La extra\~neza en la discusi\'on sobre el copyleft}{62}}
\@writefile{toc}{\contentsline {subsection}{Esquema de colaboraci\'on}{64}}
\@writefile{toc}{\contentsline {section}{Convergencia de ideas en los modelos alternativos de circulaci\'on que propone el movimiento de software libre desde otras \'areas de la producci\'on cultural}{66}}
\@writefile{toc}{\contentsline {subsection}{Potenciales de convergencia en una \'epoca de redefiniciones}{67}}
\@writefile{toc}{\contentsline {paragraph}{$<$T4$>$La afinidad ideol\'ogica de las propuestas: develar el desconocimiento mutuo}{67}}
\@writefile{lof}{\contentsline {figure}{\numberline {4}{\ignorespaces \textit  {Collage} de Hannah H\"och, Alemania, 1919.}}{69}}
\newlabel{fig4}{{4}{69}}
\@writefile{lof}{\contentsline {figure}{\numberline {5}{\ignorespaces Las 30 Giocondas, Andy Warhol.}}{69}}
\newlabel{fig5}{{5}{69}}
\@writefile{lof}{\contentsline {figure}{\numberline {6}{\ignorespaces Fotograf\IeC {\'\i }as de Evans y Levine.}}{70}}
\newlabel{fig6}{{6}{70}}
\@writefile{toc}{\contentsline {paragraph}{$<$T4$>$Propuestas y proyecciones}{70}}
\@writefile{toc}{\contentsline {paragraph}{$<$T4$>$Sobre las distancias autor-receptor}{71}}
\@writefile{toc}{\contentsline {subsection}{Aspectos en debate sobre las licencias permisivas en el arte}{71}}
\@writefile{toc}{\contentsline {paragraph}{$<$T4$>$Diversidad y calidad de las obras de libre circulaci\'on}{71}}
\@writefile{toc}{\contentsline {paragraph}{$<$T4$>$Puntos problem\'aticos para los autores en las licencias permisivas}{72}}
\@writefile{toc}{\contentsline {paragraph}{$<$T4$>$Desconocimiento del copyright y, por extensi\'on, errores de interpretaci\'on sobre el copyleft}{73}}
\@writefile{toc}{\contentsline {paragraph}{$<$T4$>$Desinter\'es por la mara\~na t\'ecnico-legal}{74}}
\@writefile{toc}{\contentsline {paragraph}{$<$T4$>$Usos comerciales}{74}}
\@writefile{toc}{\contentsline {paragraph}{$<$T4$>$Obras derivadas}{76}}
\@writefile{toc}{\contentsline {paragraph}{$<$T4$>$La obra derivada sin control: o la preocupaci\'on por evitar ``ciertas'' derivaciones}{77}}
\@writefile{toc}{\contentsline {chapter}{Fundamentos te\'oricos y ubicaci\'on hist\'orica de la econom\IeC {\'\i }a y sociedad del conocimiento}{79}}
\@writefile{toc}{\contentsline {section}{Introducci\'on}{79}}
\@writefile{toc}{\contentsline {section}{Econom\IeC {\'\i }a y sociedad del conocimiento}{81}}
\@writefile{toc}{\contentsline {section}{V\IeC {\'\i }as de desarrollo de los embriones de la sociedad del conocimiento}{86}}
\@writefile{toc}{\contentsline {section}{\IeC {\textquestiondown }Hacia una sociedad del conocimiento inclusiva y participativa?}{92}}
\@writefile{toc}{\contentsline {section}{Referencias}{100}}
\@writefile{toc}{\contentsline {part}{II\hspace  {1em}Comunidades}{107}}
\@writefile{toc}{\contentsline {chapter}{Factores de motivaci\'on y elementos de reconocimiento}{109}}
\@writefile{lof}{\addvspace {10\p@ }}
\@writefile{lot}{\addvspace {10\p@ }}
\@writefile{toc}{\contentsline {section}{Factores de motivaci\'on}{110}}
\@writefile{toc}{\contentsline {subsection}{La programaci\'on como un acto de belleza o de arte}{111}}
\@writefile{toc}{\contentsline {subsection}{Programar por diversi\'on}{113}}
\@writefile{toc}{\contentsline {subsection}{Semillero de interacciones sociales}{114}}
\@writefile{toc}{\contentsline {subsection}{Enfatizando en las ventajas del modelo distribuido, descentralizado de desarrollo}{116}}
\@writefile{toc}{\contentsline {subsection}{La econom\IeC {\'\i }a del regalo}{121}}
\@writefile{toc}{\contentsline {subsection}{Impulso \'etico-ideol\'ogico}{122}}
\@writefile{toc}{\contentsline {subsection}{Incidencia del proyecto en un \'area de inter\'es profesional}{124}}
\@writefile{toc}{\contentsline {section}{Elementos de identificaci\'on con la subcultura hacker}{125}}
\@writefile{toc}{\contentsline {section}{Paralelos en otros grupos creadores}{128}}
\@writefile{toc}{\contentsline {subsection}{Paralelos con la comunidad cient\IeC {\'\i }fica}{129}}
\@writefile{toc}{\contentsline {subsection}{Comunidades de creaci\'on art\IeC {\'\i }stica}{130}}
\@writefile{toc}{\contentsline {section}{Diferentes formas y niveles de participaci\'on}{132}}
\@writefile{toc}{\contentsline {section}{Jerarquizaci\'on de los individuos en la sociedad}{136}}
\@writefile{toc}{\contentsline {subsection}{Sistemas de redes sociales}{136}}
\@writefile{toc}{\contentsline {section}{Conclusiones}{141}}
\@writefile{toc}{\contentsline {chapter}{La construcci\'on colaborativa del conocimiento desde la \'optica de las comunidades de {\it  software} libre}{143}}
\@writefile{toc}{\contentsline {section}{Introducci\'on}{144}}
\@writefile{toc}{\contentsline {section}{Tecnolog\IeC {\'\i }a y comunidades de software libre}{145}}
\@writefile{toc}{\contentsline {subsection}{Repensar la tecnolog\IeC {\'\i }a}{145}}
\@writefile{toc}{\contentsline {section}{El conocimiento es un hecho social}{147}}
\@writefile{toc}{\contentsline {section}{Comunidades de software libre}{147}}
\@writefile{toc}{\contentsline {section}{Elementos para entender las comunidades de software libre}{148}}
\@writefile{toc}{\contentsline {section}{Referencias}{149}}
\@writefile{toc}{\contentsline {part}{III\hspace  {1em}Sociedad}{153}}
\@writefile{toc}{\contentsline {chapter}{Pol\IeC {\'\i }tica 2.0}{155}}
\@writefile{lof}{\addvspace {10\p@ }}
\@writefile{lot}{\addvspace {10\p@ }}
\@writefile{toc}{\contentsline {section}{Introducci\'on}{155}}
\@writefile{toc}{\contentsline {section}{Una definici\'on de pol\IeC {\'\i }tica 2.0}{159}}
\@writefile{toc}{\contentsline {section}{Algunas iniciativas locales}{162}}
\@writefile{toc}{\contentsline {subsection}{Politika 2.0}{162}}
\@writefile{toc}{\contentsline {subsection}{Colabora en nuestras ciudades}{162}}
\@writefile{toc}{\contentsline {subsection}{Ciudadanos 2010}{163}}
\@writefile{toc}{\contentsline {subsection}{Parlio}{163}}
\@writefile{toc}{\contentsline {subsection}{Ezker Batua Berdeak}{164}}
\@writefile{toc}{\contentsline {subsection}{Neskateka}{164}}
\@writefile{toc}{\contentsline {subsection}{arreglaMicalle}{165}}
\@writefile{toc}{\contentsline {subsection}{Queremos software libre}{165}}
\@writefile{toc}{\contentsline {subsection}{Sindominio}{166}}
\@writefile{toc}{\contentsline {subsection}{Indymedia}{166}}
\@writefile{toc}{\contentsline {subsection}{Hacktivistas}{167}}
\@writefile{toc}{\contentsline {subsection}{Partido Pirata}{167}}
\@writefile{toc}{\contentsline {subsection}{Partido de Internet}{168}}
\@writefile{toc}{\contentsline {subsection}{Irekia}{170}}
\@writefile{toc}{\contentsline {section}{Conclusiones}{170}}
\@writefile{toc}{\contentsline {subsection}{Caracter\IeC {\'\i }sticas comunes}{170}}
\@writefile{toc}{\contentsline {subsection}{Tipos de grupos}{171}}
\@writefile{toc}{\contentsline {chapter}{Analfabetizaci\'on inform\'atica o \IeC {\textquestiondown }por qu\'e los programas privativos fomentan la analfabetizaci\'on?}{175}}
\@writefile{lof}{\addvspace {10\p@ }}
\@writefile{lot}{\addvspace {10\p@ }}
\@writefile{toc}{\contentsline {section}{Introducci\'on}{175}}
\@writefile{toc}{\contentsline {section}{\IeC {\textquestiondown }Qu\'e entendemos por alfabetizaci\'on?}{177}}
\@writefile{toc}{\contentsline {section}{Contenido y estructura}{179}}
\@writefile{toc}{\contentsline {section}{El futuro en el jard\IeC {\'\i }n de infantes}{180}}
\@writefile{toc}{\contentsline {section}{Perspectivas y propuestas}{183}}
\@writefile{toc}{\contentsline {chapter}{Construyendo metodolog\IeC {\'\i }as para la infoinclusi\'on}{187}}
\@writefile{toc}{\contentsline {section}{Punto de encuentro: la infoinclusi\'on}{188}}
\@writefile{toc}{\contentsline {section}{La historia personal y organizativa}{195}}
\@writefile{toc}{\contentsline {section}{El enfoque de g\'enero}{198}}
\@writefile{toc}{\contentsline {section}{Experiencias}{201}}
\@writefile{toc}{\contentsline {subsection}{Usos estrat\'egicos de internet con campesinos}{201}}
\@writefile{toc}{\contentsline {subsection}{Manejo seguro de la informaci\'on con dos organizaciones que trabajan en derechos humanos}{207}}
\@writefile{toc}{\contentsline {section}{Notas finales}{213}}
\@writefile{toc}{\contentsline {section}{Referencias}{214}}
\@writefile{toc}{\contentsline {part}{IV\hspace  {1em}Ap\'endices}{219}}
\@writefile{toc}{\contentsline {chapter}{Ap\'endice A. Educaci\'on y {\it  software} libre}{221}}
\@writefile{lof}{\addvspace {10\p@ }}
\@writefile{lot}{\addvspace {10\p@ }}
\@writefile{toc}{\contentsline {section}{Eje tecnol\'ogico}{224}}
\@writefile{toc}{\contentsline {subsection}{\IeC {\textquestiondown }Software libre en la educaci\'on o educaci\'on con software libre?}{224}}
\@writefile{toc}{\contentsline {subsection}{Argumentos del eje tecnol\'ogico, de la ingenuidad educativa}{228}}
\@writefile{toc}{\contentsline {section}{Eje \'etico y cognitivo, el software libre como herramienta del pensamiento humano}{230}}
\@writefile{toc}{\contentsline {subsection}{De vuelta a lo importante, la educaci\'on}{230}}
\@writefile{toc}{\contentsline {subsection}{Educaci\'on camino a los bienes comunes}{231}}
\@writefile{toc}{\contentsline {subsection}{De la cultura libre a la educaci\'on libre}{237}}
\@writefile{toc}{\contentsline {subsection}{Bienes culturales libres: dibujando el futuro}{241}}
\@writefile{toc}{\contentsline {chapter}{Ap\'endice B. Sugar}{243}}
\@writefile{lof}{\contentsline {figure}{\numberline {7}{\ignorespaces Ni\~na feliz con su entorno de aprendizaje Sugar.}}{244}}
\newlabel{fig1Ab}{{7}{244}}
\@writefile{toc}{\contentsline {section}{Construccionismo: un enfoque educativo centrado en el aprendiz}{244}}
\@writefile{lof}{\contentsline {figure}{\numberline {8}{\ignorespaces Primeros dise\~nos del Dynabook en 1968, la computadora personal para el aprendizaje de ni\~nos.}}{245}}
\newlabel{fig2Ab}{{8}{245}}
\@writefile{toc}{\contentsline {section}{Los ni\~nos no son oficinistas}{247}}
\@writefile{lof}{\contentsline {figure}{\numberline {9}{\ignorespaces \textit  {Casa o pieza}: el ni\~no en el centro, bajo \'el su bit\'acora y las \textit  {actividades} a su alrededor.}}{248}}
\newlabel{fig3Ab}{{9}{248}}
\@writefile{lof}{\contentsline {figure}{\numberline {10}{\ignorespaces \textit  {Amigos}: personas a quienes he invitado para saber qu\'e hacen y ellos sepan qu\'e estoy haciendo, para compartir y trabajar en colaboraci\'on.}}{248}}
\newlabel{fig4Ab}{{10}{248}}
\@writefile{lof}{\contentsline {figure}{\numberline {11}{\ignorespaces \textit  {Vecindario}: me contacto con otras personas que est\'an trabajando y est\'an conectados, y s\'e qu\'e est\'an haciendo.}}{248}}
\newlabel{fig5Ab}{{11}{248}}
\@writefile{lof}{\contentsline {figure}{\numberline {12}{\ignorespaces \textit  {Actividad}: interfaz que busca simplicidad y se reitera en el resto de otras actividades.}}{249}}
\newlabel{fig6Ab}{{12}{249}}
\@writefile{lof}{\contentsline {figure}{\numberline {13}{\ignorespaces Sugar corriendo en computadoras dise\~nadas para ni\~nos, el XOOLPC y \textit  {classmate} 3 de Intel.}}{249}}
\newlabel{fig7Ab}{{13}{249}}
\@writefile{toc}{\contentsline {section}{Actividades para construir y compartir}{250}}
\@writefile{lof}{\contentsline {figure}{\numberline {14}{\ignorespaces La actividad ha sido compartida al \textit  {vecindario}, al darle a conocer la actividad que se emprende, e inicia a las posibilidades de trabajo colaborativo.}}{250}}
\newlabel{fig8Ab}{{14}{250}}
\@writefile{lof}{\contentsline {figure}{\numberline {15}{\ignorespaces  Un par puede sumarse desde el \textit  {vecindario} para ver o interactuar en la actividad compartida.}}{251}}
\newlabel{fig9Ab}{{15}{251}}
\@writefile{lof}{\contentsline {figure}{\numberline {16}{\ignorespaces A su vez, tambi\'en podemos invitar a alg\'un par a participar de la actividad compartida.}}{251}}
\newlabel{fig10Ab}{{16}{251}}
\@writefile{lof}{\contentsline {figure}{\numberline {17}{\ignorespaces Bit\'acora del aprendiz, instrumento de evaluaci\'on formativo y seguimiento.}}{251}}
\newlabel{fig11Ab}{{17}{251}}
\@writefile{lof}{\contentsline {figure}{\numberline {18}{\ignorespaces \textit  {Conversar}: \textit  {chat} que permite discusi\'on colaborativa.}}{252}}
\newlabel{fig12Ab}{{18}{252}}
\@writefile{lof}{\contentsline {figure}{\numberline {19}{\ignorespaces \textit  {Escribir}: procesador de texto simplificado.}}{252}}
\newlabel{fig13Ab}{{19}{252}}
\@writefile{lof}{\contentsline {figure}{\numberline {20}{\ignorespaces \textit  {Navegar}: navegador \textit  {web} (\textit  {browser}) para acceder a sitios \textit  {web}.}}{252}}
\newlabel{fig14Ab}{{20}{252}}
\@writefile{lof}{\contentsline {figure}{\numberline {21}{\ignorespaces \textit  {Hablar}: una ``cara parlante'' que pronuncia todo lo que tecleas en m\'as de 70 idiomas, mediante un sintetizador de voz. Tambi\'en posee un m\'odulo de robot que permite ``conversar con la m\'aquina''.}}{253}}
\newlabel{fig15Ab}{{21}{253}}
\@writefile{lof}{\contentsline {figure}{\numberline {22}{\ignorespaces \textit  {GCompris}: colecci\'on de diferentes actividades (m\'as de 100) con distintos niveles de complejidad en diferentes subsectores de aprendizaje (matem\'aticas, lenguaje y comprensi\'on del medio).}}{253}}
\newlabel{fig16Ab}{{22}{253}}
\@writefile{lof}{\contentsline {figure}{\numberline {23}{\ignorespaces \textit  {Memorizar}: juego de ejercitaci\'on de memoria visual.}}{253}}
\newlabel{fig17Ab}{{23}{253}}
\@writefile{lof}{\contentsline {figure}{\numberline {24}{\ignorespaces \textit  {EToys}: entorno de autor\IeC {\'\i }a medial basado en \textit  {Squeak}; tambi\'en art\IeC {\'\i }stico mediante el ensamblaje de funciones de programaci\'on.}}{254}}
\newlabel{fig18Ab}{{24}{254}}
\@writefile{lof}{\contentsline {figure}{\numberline {25}{\ignorespaces \textit  {TortugArte}: tortuga gr\'afica inspirada en \textit  {Logo}, que permite el dibujo art\IeC {\'\i }stico mediante el ensamblaje de funciones de programaci\'on.}}{254}}
\newlabel{fig19Ab}{{25}{254}}
\@writefile{toc}{\contentsline {section}{Abramos la educaci\'on}{254}}
\@writefile{lof}{\contentsline {figure}{\numberline {26}{\ignorespaces \textit  {Pippy}: editor de c\'odigo del lenguaje de programaci\'on \textit  {python} con ejemplos incluidos y un entorno de ejecuci\'on.}}{255}}
\newlabel{fig20Ab}{{26}{255}}
\@writefile{lof}{\contentsline {figure}{\numberline {27}{\ignorespaces \textit  {TamTam Edit/Mini/Jam}: colecci\'on completa de composici\'on, edici\'on y s\IeC {\'\i }ntesis para la creaci\'on musical.}}{255}}
\newlabel{fig21Ab}{{27}{255}}
\@writefile{lof}{\contentsline {figure}{\numberline {28}{\ignorespaces \textit  {Grabar}: permite registrar fotograf\IeC {\'\i }as y video a trav\'es de una c\'amara conectada o ``ensamblada'' en la computadora.}}{256}}
\newlabel{fig22Ab}{{28}{256}}
\@writefile{lof}{\contentsline {figure}{\numberline {29}{\ignorespaces \textit  {InfoSlicer}: permite seleccionar contenido \textit  {web} pertinente, editarlo, empaquetarlo y distribuirlo r\'apidamente.}}{256}}
\newlabel{fig23Ab}{{29}{256}}
\@writefile{lof}{\contentsline {figure}{\numberline {30}{\ignorespaces \textit  {Story Builder}: constructor de historias gr\'aficas (c\'omics).}}{257}}
\newlabel{fig24Ab}{{30}{257}}
\@writefile{lof}{\contentsline {figure}{\numberline {31}{\ignorespaces \textit  {Laberinto}: editor que genera mapas conceptuales y otros diagramas de ideas.}}{257}}
\newlabel{fig25Ab}{{31}{257}}
\@writefile{lof}{\contentsline {figure}{\numberline {32}{\ignorespaces \textit  {Pintar}: editor gr\'afico simplificado para dibujar diversos tipos de formas.}}{258}}
\newlabel{fig26Ab}{{32}{258}}
\@writefile{lof}{\contentsline {figure}{\numberline {33}{\ignorespaces \textit  {F\IeC {\'\i }sica}: es un simulador de objetos en 2D y su comportamiento f\IeC {\'\i }sico; se pueden crear diversos objetos geom\'etricos y verlos tomar vida con sus fuerzas (gravedad), fricci\'on e inercia.}}{258}}
\newlabel{fig27Ab}{{33}{258}}
\@writefile{toc}{\contentsline {section}{Evidencia}{258}}
\@writefile{lof}{\contentsline {figure}{\numberline {34}{\ignorespaces \textit  {Cartoon Builder}: editor para la creaci\'on de animaciones gr\'aficas.}}{259}}
\newlabel{fig28Ab}{{34}{259}}
\@writefile{lof}{\contentsline {figure}{\numberline {35}{\ignorespaces \textit  {Flipsticks}: entorno para crear figuras animadas que son una conjunci\'on de articulaciones; cada una puede tener una conducta, de modo que se posibilita a una figura de palos caminar, bailar, etc\'etera.}}{259}}
\newlabel{fig29Ab}{{35}{259}}
\@writefile{lof}{\contentsline {figure}{\numberline {36}{\ignorespaces SoaS, el Sugar portable corriendo en una \textit  {classmate} 2 y \textit  {netbook} Asus EEE.}}{260}}
\newlabel{fig30Ab}{{36}{260}}
\@writefile{lof}{\contentsline {figure}{\numberline {37}{\ignorespaces La funcionalidad ``Ver c\'odigo'' permite adentrarse en el c\'odigo detr\'as de cada actividad, en este caso un cliente IRC.}}{260}}
\newlabel{fig31Ab}{{37}{260}}
\@writefile{lof}{\contentsline {figure}{\numberline {38}{\ignorespaces Ni\~no interactuando con Sugar en su OLPC en Arahuay, localidad rural del altiplano peruano.}}{261}}
\newlabel{fig32Ab}{{38}{261}}
\@writefile{lof}{\contentsline {figure}{\numberline {39}{\ignorespaces Sugar, desplegado a trav\'es de OLPC en una sala de clases en Uruguay.}}{261}}
\newlabel{fig33Ab}{{39}{261}}
\@writefile{toc}{\contentsline {section}{Sugar y su implementaci\'on en escuelas}{263}}
\@writefile{lof}{\contentsline {figure}{\numberline {40}{\ignorespaces \textit  {Sugar on a Stick} hoy se despliega en escuelas estadounidenses.}}{264}}
\newlabel{fig34Ab}{{40}{264}}
\@writefile{lof}{\contentsline {figure}{\numberline {41}{\ignorespaces \textit  {FoodForce2}: juego de estrategia para superar la hambruna en el mundo.}}{265}}
\newlabel{fig35Ab}{{41}{265}}
\@writefile{toc}{\contentsline {section}{Cierre}{265}}
\@writefile{toc}{\contentsline {chapter}{Ap\'endice C. Voto electr\'onico: \IeC {\textquestiondown }Qui\'en tiene realmente la decisi\'on?}{269}}
\@writefile{toc}{\contentsline {section}{Disminuci\'on de costos}{271}}
\@writefile{toc}{\contentsline {section}{Agilidad en la obtenci\'on de resultados}{274}}
\@writefile{toc}{\contentsline {section}{Confiabilidad de los actores}{276}}
\@writefile{toc}{\contentsline {section}{Votos blancos y nulos: expresi\'on leg\IeC {\'\i }tima del ciudadano}{280}}
\@writefile{toc}{\contentsline {section}{Experiencias internacionales}{282}}
\@writefile{toc}{\contentsline {chapter}{Ap\'endice D. Traducci\'on de herramientas para revaloraci\'on y rescate de la lectura tradicional}{287}}
\@writefile{toc}{\contentsline {section}{Exposici\'on}{287}}
\@writefile{toc}{\contentsline {section}{Sesi\'on de preguntas y respuestas}{297}}
\@writefile{toc}{\contentsline {section}{Referencias}{307}}
