\relax 
\catcode`"\active
\catcode`<\active
\catcode`>\active
\@nameuse{es@quoting}
\catcode`'\active
\select@language{spanish}
\@writefile{toc}{\select@language{spanish}}
\@writefile{lof}{\select@language{spanish}}
\@writefile{lot}{\select@language{spanish}}
\@writefile{toc}{\contentsline {chapter}{Introducci\'on}{9}}
\@writefile{lof}{\addvspace {10\p@ }}
\@writefile{lot}{\addvspace {10\p@ }}
\@writefile{toc}{\contentsline {section}{El proyecto}{10}}
\@writefile{toc}{\contentsline {subsection}{Manejo de referencias}{12}}
\@writefile{toc}{\contentsline {section}{Implementaci\'on t\'ecnica}{14}}
\@writefile{toc}{\contentsline {section}{Acerca de los autores}{18}}
\@writefile{toc}{\contentsline {subsection}{Beatriz Busaniche (Argentina)}{18}}
\@writefile{toc}{\contentsline {subsection}{H\'ector Colina (Venezuela)}{18}}
\@writefile{toc}{\contentsline {subsection}{Carolina Flores (Costa Rica)}{19}}
\@writefile{toc}{\contentsline {subsection}{Antonio Galindo (M\'exico)}{19}}
\@writefile{toc}{\contentsline {subsection}{Alejandro Miranda (M\'exico)}{19}}
\@writefile{toc}{\contentsline {subsection}{Sergio Ord\'o\~nez (M\'exico)}{20}}
\@writefile{toc}{\contentsline {subsection}{Lila Pagola (Argentina)}{20}}
\@writefile{toc}{\contentsline {subsection}{Marko Txopitea (Euskal Herria)}{21}}
\@writefile{toc}{\contentsline {subsection}{\'Erika Valverde (Costa Rica)}{21}}
\@writefile{toc}{\contentsline {subsection}{Gunnar Wolf (M\'exico)}{22}}
\@writefile{toc}{\contentsline {part}{I\hspace  {1em}Software y medios libres}{23}}
\@writefile{toc}{\contentsline {chapter}{Software libre y construcci\'on democr\'atica de la sociedad}{25}}
\@writefile{lof}{\addvspace {10\p@ }}
\@writefile{lot}{\addvspace {10\p@ }}
\@writefile{toc}{\contentsline {section}{Introducci\'on}{26}}
\@writefile{toc}{\contentsline {subsection}{La historia del conocimiento}{26}}
\@writefile{toc}{\contentsline {subsection}{El c\'omputo como expresi\'on del conocimiento}{30}}
\@writefile{toc}{\contentsline {subsection}{\IeC {\textquestiondown }Qu\'e es una sociedad democr\'atica?}{32}}
\@writefile{toc}{\contentsline {subsection}{Del software al conocimiento}{35}}
\@writefile{toc}{\contentsline {section}{El software libre en tanto movimiento social}{38}}
\@writefile{toc}{\contentsline {section}{Conclusiones}{43}}
\@writefile{toc}{\contentsline {chapter}{Esquemas permisivos de licenciamiento en la creaci\'on art\IeC {\'\i }stica}{45}}
\@writefile{toc}{\contentsline {section}{Introducci\'on}{45}}
\@writefile{toc}{\contentsline {section}{Posiciones respecto de los derechos de autor y de copia en el arte}{47}}
\@writefile{toc}{\contentsline {subsection}{Actitud copyleft en el arte}{50}}
\@writefile{toc}{\contentsline {subsection}{Reacciones desde la industria cultural y las gestoras de derechos de autor}{51}}
\@writefile{toc}{\contentsline {section}{Cr\IeC {\'\i }tica a la noci\'on de autor: antecedentes en la historia del arte}{52}}
\@writefile{toc}{\contentsline {section}{Efecto copyleft avant la lettre: c\'omo explicar el copyleft cuando todos lo practicamos}{53}}
\@writefile{toc}{\contentsline {subsection}{1984, m\'as ac\'a de Orwell: Stallman y Jobs}{54}}
\@writefile{toc}{\contentsline {subsection}{Los problemas de la naturalizaci\'on: el doble est\'andar}{58}}
\@writefile{toc}{\contentsline {subsection}{La extra\~neza en la discusi\'on sobre el copyleft}{59}}
\@writefile{toc}{\contentsline {subsection}{Esquema de colaboraci\'on}{61}}
\@writefile{toc}{\contentsline {section}{Convergencia de ideas en los modelos alternativos de circulaci\'on que propone el movimiento de software libre desde otras \'areas de la producci\'on cultural}{63}}
\@writefile{toc}{\contentsline {subsection}{Potenciales de convergencia en una \'epoca de redefiniciones}{64}}
\@writefile{toc}{\contentsline {paragraph}{$<$T4$>$La afinidad ideol\'ogica de las propuestas: develar el desconocimiento mutuo}{64}}
\@writefile{toc}{\contentsline {paragraph}{$<$T4$>$Propuestas y proyecciones}{67}}
\@writefile{toc}{\contentsline {paragraph}{$<$T4$>$Sobre las distancias autor-receptor}{67}}
\@writefile{toc}{\contentsline {subsection}{Aspectos en debate sobre las licencias permisivas en el arte}{68}}
\@writefile{toc}{\contentsline {paragraph}{$<$T4$>$Diversidad y calidad de las obras de libre circulaci\'on}{68}}
\@writefile{toc}{\contentsline {paragraph}{$<$T4$>$Puntos problem\'aticos para los autores en las licencias permisivas}{69}}
\@writefile{toc}{\contentsline {paragraph}{$<$T4$>$Desconocimiento del copyright y, por extensi\'on, errores de interpretaci\'on sobre el copyleft}{69}}
\@writefile{toc}{\contentsline {paragraph}{$<$T4$>$Desinter\'es por la mara\~na t\'ecnico-legal}{70}}
\@writefile{toc}{\contentsline {paragraph}{$<$T4$>$Usos comerciales}{71}}
\@writefile{toc}{\contentsline {paragraph}{$<$T4$>$Obras derivadas}{72}}
\@writefile{toc}{\contentsline {paragraph}{$<$T4$>$La obra derivada sin control: o la preocupaci\'on por evitar ``ciertas'' derivaciones}{73}}
\@writefile{toc}{\contentsline {chapter}{Fundamentos te\'oricos y ubicaci\'on hist\'orica de la econom\IeC {\'\i }a y sociedad del conocimiento}{77}}
\@writefile{toc}{\contentsline {section}{Introducci\'on}{77}}
\@writefile{toc}{\contentsline {section}{Econom\IeC {\'\i }a y sociedad del conocimiento}{79}}
\@writefile{toc}{\contentsline {section}{V\IeC {\'\i }as de desarrollo de los embriones de la sociedad del conocimiento}{84}}
\@writefile{toc}{\contentsline {section}{\IeC {\textquestiondown }Hacia una sociedad del conocimiento inclusiva y participativa?}{90}}
\@writefile{toc}{\contentsline {section}{Referencias}{98}}
\@writefile{toc}{\contentsline {part}{II\hspace  {1em}Comunidades}{105}}
\@writefile{toc}{\contentsline {chapter}{Factores de motivaci\'on y elementos de reconocimiento}{107}}
\@writefile{lof}{\addvspace {10\p@ }}
\@writefile{lot}{\addvspace {10\p@ }}
\@writefile{toc}{\contentsline {section}{Factores de motivaci\'on}{108}}
\@writefile{toc}{\contentsline {subsection}{La programaci\'on como un acto de belleza o de arte}{109}}
\@writefile{toc}{\contentsline {subsection}{Programar por diversi\'on}{111}}
\@writefile{toc}{\contentsline {subsection}{Semillero de interacciones sociales}{112}}
\@writefile{toc}{\contentsline {subsection}{Enfatizando en las ventajas del modelo distribuido, descentralizado de desarrollo}{114}}
\@writefile{toc}{\contentsline {subsection}{La econom\IeC {\'\i }a del regalo}{119}}
\@writefile{toc}{\contentsline {subsection}{Impulso \'etico-ideol\'ogico}{120}}
\@writefile{toc}{\contentsline {subsection}{Incidencia del proyecto en un \'area de inter\'es profesional}{122}}
\@writefile{toc}{\contentsline {section}{Elementos de identificaci\'on con la subcultura hacker}{123}}
\@writefile{toc}{\contentsline {section}{Paralelos en otros grupos creadores}{126}}
\@writefile{toc}{\contentsline {subsection}{Paralelos con la comunidad cient\IeC {\'\i }fica}{127}}
\@writefile{toc}{\contentsline {subsection}{Comunidades de creaci\'on art\IeC {\'\i }stica}{128}}
\@writefile{toc}{\contentsline {section}{Diferentes formas y niveles de participaci\'on}{130}}
\@writefile{toc}{\contentsline {section}{Jerarquizaci\'on de los individuos en la sociedad}{134}}
\@writefile{toc}{\contentsline {subsection}{Sistemas de redes sociales}{134}}
\@writefile{toc}{\contentsline {section}{Conclusiones}{139}}
\@writefile{toc}{\contentsline {chapter}{La construcci\'on colaborativa del conocimiento desde la \'optica de las comunidades de {\it  software} libre}{141}}
\@writefile{toc}{\contentsline {section}{Introducci\'on}{142}}
\@writefile{toc}{\contentsline {section}{Tecnolog\IeC {\'\i }a y comunidades de software libre}{143}}
\@writefile{toc}{\contentsline {subsection}{Repensar la tecnolog\IeC {\'\i }a}{143}}
\@writefile{toc}{\contentsline {section}{El conocimiento es un hecho social}{145}}
\@writefile{toc}{\contentsline {section}{Comunidades de software libre}{145}}
\@writefile{toc}{\contentsline {section}{Elementos para entender las comunidades de software libre}{146}}
\@writefile{toc}{\contentsline {section}{Referencias}{147}}
\@writefile{toc}{\contentsline {part}{III\hspace  {1em}Sociedad}{151}}
\@writefile{toc}{\contentsline {chapter}{Pol\IeC {\'\i }tica 2.0}{153}}
\@writefile{lof}{\addvspace {10\p@ }}
\@writefile{lot}{\addvspace {10\p@ }}
\@writefile{toc}{\contentsline {section}{Introducci\'on}{153}}
\@writefile{toc}{\contentsline {section}{Una definici\'on de pol\IeC {\'\i }tica 2.0}{157}}
\@writefile{toc}{\contentsline {section}{Algunas iniciativas locales}{160}}
\@writefile{toc}{\contentsline {subsection}{Politika 2.0}{160}}
\@writefile{toc}{\contentsline {subsection}{Colabora en nuestras ciudades}{160}}
\@writefile{toc}{\contentsline {subsection}{Ciudadanos 2010}{161}}
\@writefile{toc}{\contentsline {subsection}{Parlio}{161}}
\@writefile{toc}{\contentsline {subsection}{Ezker Batua Berdeak}{162}}
\@writefile{toc}{\contentsline {subsection}{Neskateka}{162}}
\@writefile{toc}{\contentsline {subsection}{arreglaMicalle}{163}}
\@writefile{toc}{\contentsline {subsection}{Queremos software libre}{163}}
\@writefile{toc}{\contentsline {subsection}{Sindominio}{164}}
\@writefile{toc}{\contentsline {subsection}{Indymedia}{164}}
\@writefile{toc}{\contentsline {subsection}{Hacktivistas}{165}}
\@writefile{toc}{\contentsline {subsection}{Partido Pirata}{165}}
\@writefile{toc}{\contentsline {subsection}{Partido de Internet}{166}}
\@writefile{toc}{\contentsline {subsection}{Irekia}{168}}
\@writefile{toc}{\contentsline {section}{Conclusiones}{168}}
\@writefile{toc}{\contentsline {subsection}{Caracter\IeC {\'\i }sticas comunes}{168}}
\@writefile{toc}{\contentsline {subsection}{Tipos de grupos}{169}}
\@writefile{toc}{\contentsline {chapter}{Analfabetizaci\'on inform\'atica o \IeC {\textquestiondown }por qu\'e los programas privativos fomentan la analfabetizaci\'on?}{173}}
\@writefile{lof}{\addvspace {10\p@ }}
\@writefile{lot}{\addvspace {10\p@ }}
\@writefile{toc}{\contentsline {section}{Introducci\'on}{173}}
\@writefile{toc}{\contentsline {section}{\IeC {\textquestiondown }Qu\'e entendemos por alfabetizaci\'on?}{175}}
\@writefile{toc}{\contentsline {section}{Contenido y estructura}{177}}
\@writefile{toc}{\contentsline {section}{El futuro en el jard\IeC {\'\i }n de infantes}{178}}
\@writefile{toc}{\contentsline {section}{Perspectivas y propuestas}{181}}
\@writefile{toc}{\contentsline {chapter}{Construyendo metodolog\IeC {\'\i }as para la infoinclusi\'on}{185}}
\@writefile{toc}{\contentsline {section}{Punto de encuentro: la infoinclusi\'on}{186}}
\@writefile{toc}{\contentsline {section}{La historia personal y organizativa}{193}}
\@writefile{toc}{\contentsline {section}{El enfoque de g\'enero}{196}}
\@writefile{toc}{\contentsline {section}{Experiencias}{199}}
\@writefile{toc}{\contentsline {subsection}{Usos estrat\'egicos de internet con campesinos}{199}}
\@writefile{toc}{\contentsline {subsection}{Manejo seguro de la informaci\'on con dos organizaciones que trabajan en derechos humanos}{205}}
\@writefile{toc}{\contentsline {section}{Notas finales}{211}}
\@writefile{toc}{\contentsline {section}{Referencias}{212}}
\@writefile{toc}{\contentsline {part}{IV\hspace  {1em}Ap\'endices}{217}}
\@writefile{toc}{\contentsline {chapter}{Ap\'endice A. Educaci\'on y {\it  software} libre}{219}}
\@writefile{lof}{\addvspace {10\p@ }}
\@writefile{lot}{\addvspace {10\p@ }}
\@writefile{toc}{\contentsline {section}{Eje tecnol\'ogico}{222}}
\@writefile{toc}{\contentsline {subsection}{\IeC {\textquestiondown }Software libre en la educaci\'on o educaci\'on con software libre?}{222}}
\@writefile{toc}{\contentsline {subsection}{Argumentos del eje tecnol\'ogico, de la ingenuidad educativa}{226}}
\@writefile{toc}{\contentsline {section}{Eje \'etico y cognitivo, el software libre como herramienta del pensamiento humano}{228}}
\@writefile{toc}{\contentsline {subsection}{De vuelta a lo importante, la educaci\'on}{228}}
\@writefile{toc}{\contentsline {subsection}{Educaci\'on camino a los bienes comunes}{229}}
\@writefile{toc}{\contentsline {subsection}{De la cultura libre a la educaci\'on libre}{235}}
\@writefile{toc}{\contentsline {subsection}{Bienes culturales libres: dibujando el futuro}{239}}
\@writefile{toc}{\contentsline {chapter}{Ap\'endice B. Sugar}{241}}
\@writefile{toc}{\contentsline {section}{Construccionismo: un enfoque educativo centrado en el aprendiz}{242}}
\@writefile{toc}{\contentsline {section}{Los ni\~nos no son oficinistas}{245}}
\@writefile{toc}{\contentsline {section}{Actividades para construir y compartir}{247}}
\@writefile{toc}{\contentsline {section}{Abramos la educaci\'on}{251}}
\@writefile{toc}{\contentsline {section}{Evidencia}{254}}
\@writefile{toc}{\contentsline {section}{Sugar y su implementaci\'on en escuelas}{258}}
\@writefile{toc}{\contentsline {section}{Cierre}{260}}
\@writefile{toc}{\contentsline {chapter}{Ap\'endice C. Voto electr\'onico: \IeC {\textquestiondown }Qui\'en tiene realmente la decisi\'on?}{263}}
\@writefile{toc}{\contentsline {section}{Disminuci\'on de costos}{265}}
\@writefile{toc}{\contentsline {section}{Agilidad en la obtenci\'on de resultados}{268}}
\@writefile{toc}{\contentsline {section}{Confiabilidad de los actores}{270}}
\@writefile{toc}{\contentsline {section}{Votos blancos y nulos: expresi\'on leg\IeC {\'\i }tima del ciudadano}{274}}
\@writefile{toc}{\contentsline {section}{Experiencias internacionales}{276}}
\@writefile{toc}{\contentsline {chapter}{Ap\'endice D. Traducci\'on de herramientas para revaloraci\'on y rescate de la lectura tradicional}{281}}
\@writefile{toc}{\contentsline {section}{Exposici\'on}{281}}
\@writefile{toc}{\contentsline {section}{Sesi\'on de preguntas y respuestas}{291}}
\@writefile{toc}{\contentsline {section}{Referencias}{301}}
