\relax 
\catcode`"\active
\catcode`<\active
\catcode`>\active
\@nameuse{es@quoting}
\catcode`'\active
\select@language{spanish}
\@writefile{toc}{\select@language{spanish}}
\@writefile{lof}{\select@language{spanish}}
\@writefile{lot}{\select@language{spanish}}
\@writefile{toc}{\contentsline {chapter}{Introducci\'on}{7}}
\@writefile{lof}{\addvspace {10\p@ }}
\@writefile{lot}{\addvspace {10\p@ }}
\@writefile{toc}{\contentsline {section}{El proyecto}{7}}
\@writefile{toc}{\contentsline {section}{Forma de trabajo}{8}}
\@writefile{toc}{\contentsline {subsection}{Esquema de colaboraci\'on}{8}}
\@writefile{toc}{\contentsline {subsection}{Manejo de referencias}{9}}
\@writefile{toc}{\contentsline {section}{Implementaci\'on t\'ecnica}{10}}
\@writefile{toc}{\contentsline {section}{Acerca de los autores}{12}}
\@writefile{toc}{\contentsline {subsection}{Beatriz Busaniche (Argentina)}{12}}
\@writefile{toc}{\contentsline {subsection}{H\'ector Colina (Venezuela)}{13}}
\@writefile{toc}{\contentsline {subsection}{Carolina Flores (Costa Rica)}{13}}
\@writefile{toc}{\contentsline {subsection}{Antonio Galindo (M\'exico)}{13}}
\@writefile{toc}{\contentsline {subsection}{Alejandro Miranda (M\'exico)}{14}}
\@writefile{toc}{\contentsline {subsection}{Sergio Ord\'o\~nez (M\'exico)}{14}}
\@writefile{toc}{\contentsline {subsection}{Lila Pagola (Argentina)}{14}}
\@writefile{toc}{\contentsline {subsection}{Marko Txopitea (Euskal Herria)}{14}}
\@writefile{toc}{\contentsline {subsection}{\'Erika Valverde (Costa Rica)}{15}}
\@writefile{toc}{\contentsline {subsection}{Gunnar Wolf (M\'exico)}{15}}
\@writefile{toc}{\contentsline {part}{I\hspace  {1em}Software y medios libres}{17}}
\@writefile{toc}{\contentsline {chapter}{Software libre y construcci\'on democr\'atica de la sociedad}{19}}
\@writefile{lof}{\addvspace {10\p@ }}
\@writefile{lot}{\addvspace {10\p@ }}
\@writefile{toc}{\contentsline {subsection}{\numberline {}$<$T2$>$Introducci\'on}{19}}
\@writefile{toc}{\contentsline {paragraph}{$<$T3$>$La historia del conocimiento}{20}}
\@writefile{toc}{\contentsline {paragraph}{$<$T3$>$El c\'omputo como expresi\'on del conocimiento}{22}}
\@writefile{toc}{\contentsline {paragraph}{$<$T3$>$\IeC {\textquestiondown }Qu\'e es una sociedad democr\'atica?}{23}}
\@writefile{toc}{\contentsline {paragraph}{$<$T3$>$Del software al conocimiento}{25}}
\@writefile{toc}{\contentsline {subsection}{\numberline {}$<$T2$>$El software libre en tanto movimiento social}{27}}
\@writefile{toc}{\contentsline {subsection}{\numberline {}$<$T2$>$Conclusiones}{30}}
\@writefile{toc}{\contentsline {chapter}{$<$T1$>$Esquemas permisivos de licenciamiento en la creaci\'on art\IeC {\'\i }stica}{31}}
\@writefile{lof}{\addvspace {10\p@ }}
\@writefile{lot}{\addvspace {10\p@ }}
\@writefile{toc}{\contentsline {subsection}{\numberline {}$<$T2$>$Introducci\'on}{31}}
\@writefile{toc}{\contentsline {subsection}{\numberline {}$<$T2$>$Posiciones respecto de los derechos de autor y de copia en el arte}{32}}
\@writefile{toc}{\contentsline {paragraph}{$<$T3$>$Actitud copyleft en el arte}{34}}
\@writefile{toc}{\contentsline {paragraph}{$<$T3$>$Reacciones desde la industria cultural y las gestoras de derechos de autor}{34}}
\@writefile{toc}{\contentsline {subsection}{\numberline {}$<$T2$>$Cr\IeC {\'\i }tica a la noci\'on de autor: antecedentes en la historia del arte}{35}}
\@writefile{toc}{\contentsline {subsection}{\numberline {}$<$T2$>$Efecto copyleft avant la lettre: c\'omo explicar el copyleft cuando todos lo practicamos}{36}}
\@writefile{toc}{\contentsline {paragraph}{$<$T3$>$1984, m\'as ac\'a de Orwell: Stallman y Jobs}{36}}
\@writefile{toc}{\contentsline {paragraph}{$<$T3$>$Los problemas de la naturalizaci\'on: el doble est\'andar}{39}}
\@writefile{toc}{\contentsline {paragraph}{$<$T3$>$La extra\~neza en la discusi\'on sobre el copyleft}{39}}
\@writefile{toc}{\contentsline {paragraph}{$<$T3$>$Efecto performativo del copyleft}{40}}
\@writefile{toc}{\contentsline {subsection}{\numberline {}$<$T2$>$Convergencia de ideas en los modelos alternativos de circulaci\'on que propone el movimiento de software libre desde otras \'areas de la producci\'on cultural}{42}}
\@writefile{toc}{\contentsline {paragraph}{$<$T3$>$Potenciales de convergencia en una \'epoca de redefiniciones}{42}}
\@writefile{toc}{\contentsline {paragraph}{$<$T4$>$La afinidad ideol\'ogica de las propuestas: develar el desconocimiento mutuo}{43}}
\@writefile{toc}{\contentsline {paragraph}{$<$T4$>$Propuestas y proyecciones}{44}}
\@writefile{toc}{\contentsline {paragraph}{$<$T4$>$Sobre las distancias autor-receptor}{44}}
\@writefile{toc}{\contentsline {paragraph}{$<$T3$>$Aspectos en debate sobre las licencias permisivas en el arte}{45}}
\@writefile{toc}{\contentsline {paragraph}{$<$T4$>$Diversidad y calidad de las obras de libre circulaci\'on}{45}}
\@writefile{toc}{\contentsline {paragraph}{$<$T4$>$Puntos problem\'aticos para los autores en las licencias permisivas}{45}}
\@writefile{toc}{\contentsline {paragraph}{$<$T4$>$Desconocimiento del copyright y, por extensi\'on, errores de interpretaci\'on sobre el copyleft}{45}}
\@writefile{toc}{\contentsline {paragraph}{$<$T4$>$Desinter\'es por la mara\~na t\'ecnico-legal}{46}}
\@writefile{toc}{\contentsline {paragraph}{$<$T4$>$Usos comerciales}{46}}
\@writefile{toc}{\contentsline {paragraph}{$<$T4$>$Obras derivadas}{47}}
\@writefile{toc}{\contentsline {paragraph}{$<$T4$>$La obra derivada sin control: o la preocupaci\'on por evitar ``ciertas'' derivaciones}{48}}
\@writefile{toc}{\contentsline {chapter}{$<$T1$>$Fundamentos te\'oricos y ubicaci\'on hist\'orica de la econom\IeC {\'\i }a y sociedad del conocimiento}{51}}
\@writefile{lof}{\addvspace {10\p@ }}
\@writefile{lot}{\addvspace {10\p@ }}
\@writefile{toc}{\contentsline {subsection}{\numberline {}$<$T2$>$Introducci\'on}{51}}
\@writefile{toc}{\contentsline {subsection}{\numberline {}$<$T2$>$Econom\IeC {\'\i }a y sociedad del conocimiento}{52}}
\@writefile{toc}{\contentsline {subsection}{\numberline {}$<$T2$>$V\IeC {\'\i }as de desarrollo de los embriones de la sociedad del conocimiento}{55}}
\@writefile{toc}{\contentsline {subsection}{\numberline {}$<$T2$>$\IeC {\textquestiondown }Hacia una sociedad del conocimiento inclusiva y participativa?}{59}}
\@writefile{toc}{\contentsline {subsection}{\numberline {}$<$T2$>$Referencias}{63}}
\@writefile{toc}{\contentsline {chapter}{$<$T\IeC {\'\i }tulo de secci\'on$>$Parte II. Comunidades}{67}}
\@writefile{lof}{\addvspace {10\p@ }}
\@writefile{lot}{\addvspace {10\p@ }}
\@writefile{toc}{\contentsline {chapter}{$<$T1$>$Factores de motivaci\'on y elementos de reconocimiento}{69}}
\@writefile{lof}{\addvspace {10\p@ }}
\@writefile{lot}{\addvspace {10\p@ }}
\@writefile{toc}{\contentsline {subsection}{\numberline {}$<$T2$>$Factores de motivaci\'on}{70}}
\@writefile{toc}{\contentsline {paragraph}{$<$T3$>$La programaci\'on como un acto de belleza o de arte}{70}}
\@writefile{toc}{\contentsline {paragraph}{$<$T3$>$Programar por diversi\'on}{71}}
\@writefile{toc}{\contentsline {paragraph}{$<$T3$>$Semillero de interacciones sociales}{72}}
\@writefile{toc}{\contentsline {paragraph}{$<$T3$>$Enfatizando en las ventajas del modelo distribuido, descentralizado de desarrollo}{73}}
\@writefile{toc}{\contentsline {paragraph}{$<$T3$>$La econom\IeC {\'\i }a del regalo}{76}}
\@writefile{toc}{\contentsline {paragraph}{$<$T3$>$Impulso \'etico-ideol\'ogico}{77}}
\@writefile{toc}{\contentsline {paragraph}{$<$T3$>$Incidencia del proyecto en un \'area de inter\'es profesional}{78}}
\@writefile{toc}{\contentsline {subsection}{\numberline {}$<$T2$>$Elementos de identificaci\'on con la subcultura hacker}{79}}
\@writefile{toc}{\contentsline {subsection}{\numberline {}$<$T2$>$Paralelos en otros grupos creadores}{81}}
\@writefile{toc}{\contentsline {paragraph}{$<$T3$>$Paralelos con la comunidad cient\IeC {\'\i }fica}{81}}
\@writefile{toc}{\contentsline {paragraph}{$<$T3$>$Comunidades de creaci\'on art\IeC {\'\i }stica}{82}}
\@writefile{toc}{\contentsline {subsection}{\numberline {}$<$T2$>$Diferentes formas y niveles de participaci\'on}{83}}
\@writefile{toc}{\contentsline {subsection}{\numberline {}$<$T2$>$Jerarquizaci\'on de los individuos en la sociedad}{85}}
\@writefile{toc}{\contentsline {paragraph}{$<$T3$>$Sistemas de redes sociales}{85}}
\@writefile{toc}{\contentsline {subsection}{\numberline {}$<$T2$>$Conclusiones}{88}}
\@writefile{toc}{\contentsline {chapter}{$<$T1$>$La construcci\'on colaborativa del conocimiento desde la \'optica de las comunidades de software libre}{89}}
\@writefile{lof}{\addvspace {10\p@ }}
\@writefile{lot}{\addvspace {10\p@ }}
\@writefile{toc}{\contentsline {subsection}{\numberline {}$<$T2$>$Introducci\'on}{90}}
\@writefile{toc}{\contentsline {subsection}{\numberline {}$<$T2$>$Tecnolog\IeC {\'\i }a y comunidades de software libre}{90}}
\@writefile{toc}{\contentsline {paragraph}{$<$T3$>$Repensar la tecnolog\IeC {\'\i }a}{90}}
\@writefile{toc}{\contentsline {subsection}{\numberline {}$<$T2$>$El conocimiento es un hecho social}{91}}
\@writefile{toc}{\contentsline {subsection}{\numberline {}$<$T2$>$Comunidades de software libre}{91}}
\@writefile{toc}{\contentsline {subsection}{\numberline {}$<$T2$>$Elementos para entender las comunidades de software libre}{92}}
\@writefile{toc}{\contentsline {subsection}{\numberline {}$<$T2$>$Referencias}{92}}
\@writefile{toc}{\contentsline {chapter}{$<$T\IeC {\'\i }tulo de secci\'on$>$Parte III. Sociedad}{95}}
\@writefile{lof}{\addvspace {10\p@ }}
\@writefile{lot}{\addvspace {10\p@ }}
\@writefile{toc}{\contentsline {chapter}{$<$T1$>$Pol\IeC {\'\i }tica 2.0}{97}}
\@writefile{lof}{\addvspace {10\p@ }}
\@writefile{lot}{\addvspace {10\p@ }}
\@writefile{toc}{\contentsline {subsection}{\numberline {}$<$T2$>$Introducci\'on}{97}}
\@writefile{toc}{\contentsline {subsection}{\numberline {}$<$T2$>$Una definici\'on de pol\IeC {\'\i }tica 2.0}{99}}
\@writefile{toc}{\contentsline {subsection}{\numberline {}$<$T2$>$Algunas iniciativas locales}{101}}
\@writefile{toc}{\contentsline {paragraph}{$<$T3$>$Politika 2.0}{101}}
\@writefile{toc}{\contentsline {paragraph}{$<$T3$>$Colabora en nuestras ciudades}{101}}
\@writefile{toc}{\contentsline {paragraph}{$<$T3$>$Ciudadanos2010}{102}}
\@writefile{toc}{\contentsline {paragraph}{$<$T3$>$Parlio}{102}}
\@writefile{toc}{\contentsline {paragraph}{$<$T3$>$Ezker Batua Berdeak}{102}}
\@writefile{toc}{\contentsline {paragraph}{$<$T3$>$Neskateka}{103}}
\@writefile{toc}{\contentsline {paragraph}{$<$T3$>$arreglaMicalle}{103}}
\@writefile{toc}{\contentsline {paragraph}{$<$T3$>$Queremos software libre}{103}}
\@writefile{toc}{\contentsline {paragraph}{$<$T3$>$Sindominio}{103}}
\@writefile{toc}{\contentsline {paragraph}{$<$T3$>$Indymedia}{103}}
\@writefile{toc}{\contentsline {paragraph}{$<$T3$>$Hacktivistas}{104}}
\@writefile{toc}{\contentsline {paragraph}{$<$T3$>$Partido Pirata}{104}}
\@writefile{toc}{\contentsline {paragraph}{$<$T3$>$Partido de Internet}{105}}
\@writefile{toc}{\contentsline {paragraph}{$<$T3$>$Irekia}{106}}
\@writefile{toc}{\contentsline {subsection}{\numberline {}$<$T2$>$Conclusiones}{106}}
\@writefile{toc}{\contentsline {paragraph}{$<$T3$>$ Caracter\IeC {\'\i }sticas comunes}{106}}
\@writefile{toc}{\contentsline {paragraph}{$<$T3$>$Tipos de grupos}{107}}
\@writefile{toc}{\contentsline {chapter}{$<$T1$>$Analfabetizaci\'on inform\'atica o \IeC {\textquestiondown }por qu\'e los programas privativos fomentan la analfabetizaci\'on?}{109}}
\@writefile{lof}{\addvspace {10\p@ }}
\@writefile{lot}{\addvspace {10\p@ }}
\@writefile{toc}{\contentsline {subsection}{\numberline {}$<$T2$>$Introducci\'on}{109}}
\@writefile{toc}{\contentsline {subsection}{\numberline {}$<$T2$>$\IeC {\textquestiondown }Qu\'e entendemos por alfabetizaci\'on?}{110}}
\@writefile{toc}{\contentsline {subsection}{\numberline {}$<$T2$>$Contenido y estructura}{111}}
\@writefile{toc}{\contentsline {subsection}{\numberline {}$<$T2$>$El futuro en el jard\IeC {\'\i }n de infantes}{112}}
\@writefile{toc}{\contentsline {subsection}{\numberline {}$<$T2$>$Perspectivas y propuestas}{114}}
\@writefile{toc}{\contentsline {chapter}{$<$T1$>$Construyendo metodolog\IeC {\'\i }as para la infoinclusi\'on}{117}}
\@writefile{lof}{\addvspace {10\p@ }}
\@writefile{lot}{\addvspace {10\p@ }}
\@writefile{toc}{\contentsline {subsection}{\numberline {}$<$T2$>$Punto de encuentro: la infoinclusi\'on}{118}}
\@writefile{toc}{\contentsline {subsection}{\numberline {}$<$T2$>$La historia personal y organizativa}{122}}
\@writefile{toc}{\contentsline {subsection}{\numberline {}$<$T2$>$El enfoque de g\'enero}{123}}
\@writefile{toc}{\contentsline {subsection}{\numberline {}$<$T2$>$Experiencias}{125}}
\@writefile{toc}{\contentsline {paragraph}{$<$T3$>$Usos estrat\'egicos de internet con campesinos }{126}}
\@writefile{toc}{\contentsline {paragraph}{$<$T3$>$Manejo seguro de la informaci\'on con dos organizaciones que trabajan en derechos humanos}{129}}
\@writefile{toc}{\contentsline {subsection}{\numberline {}$<$T2$>$Notas finales}{133}}
\@writefile{toc}{\contentsline {subsection}{\numberline {}$<$T2$>$Referencias}{133}}
\@writefile{toc}{\contentsline {chapter}{$<$T\IeC {\'\i }tulo de secci\'on$>$Parte IV. Ap\'endices}{137}}
\@writefile{lof}{\addvspace {10\p@ }}
\@writefile{lot}{\addvspace {10\p@ }}
\@writefile{toc}{\contentsline {chapter}{$<$T1$>$Ap\'endice A. Educaci\'on y software libre}{139}}
\@writefile{lof}{\addvspace {10\p@ }}
\@writefile{lot}{\addvspace {10\p@ }}
\@writefile{toc}{\contentsline {subsection}{\numberline {}$<$T2$>$ Eje tecnol\'ogico}{141}}
\@writefile{toc}{\contentsline {paragraph}{$<$T3$>$\IeC {\textquestiondown }Software libre en la educaci\'on o educaci\'on con software libre?}{141}}
\@writefile{toc}{\contentsline {paragraph}{$<$T3$>$Argumentos del eje tecnol\'ogico, de la ingenuidad educativa}{143}}
\@writefile{toc}{\contentsline {subsection}{\numberline {}$<$T2$>$Eje \'etico y cognitivo, el software libre como herramienta del pensamiento humano}{145}}
\@writefile{toc}{\contentsline {paragraph}{$<$T3$>$De vuelta a lo importante, la educaci\'on}{145}}
\@writefile{toc}{\contentsline {paragraph}{$<$T3$>$Educaci\'on camino a los bienes comunes}{145}}
\@writefile{toc}{\contentsline {paragraph}{$<$T3$>$De la cultura libre a la educaci\'on libre}{149}}
\@writefile{toc}{\contentsline {paragraph}{$<$T3$>$Bienes culturales libres: dibujando el futuro}{151}}
\@writefile{toc}{\contentsline {chapter}{$<$T1$>$Ap\'endice B. Sugar}{153}}
\@writefile{lof}{\addvspace {10\p@ }}
\@writefile{lot}{\addvspace {10\p@ }}
\@writefile{toc}{\contentsline {subsection}{\numberline {}$<$T2$>$Construccionismo: un enfoque educativo centrado en el aprendiz}{153}}
\@writefile{toc}{\contentsline {subsection}{\numberline {}$<$T2$>$Los ni\~nos no son oficinistas}{155}}
\@writefile{toc}{\contentsline {subsection}{\numberline {}$<$T2$>$Actividades para construir y compartir}{157}}
\@writefile{toc}{\contentsline {subsection}{\numberline {}$<$T2$>$Abramos la educaci\'on}{159}}
\@writefile{toc}{\contentsline {subsection}{\numberline {}$<$T2$>$Evidencia}{161}}
\@writefile{toc}{\contentsline {subsection}{\numberline {}$<$T2$>$Sugar y su implementaci\'on en escuelas}{163}}
\@writefile{toc}{\contentsline {subsection}{\numberline {}$<$T2$>$Cierre}{165}}
\@writefile{toc}{\contentsline {chapter}{$<$T1$>$Ap\'endice C. Voto electr\'onico: \IeC {\textquestiondown }Qui\'en tiene realmente la decisi\'on?}{167}}
\@writefile{lof}{\addvspace {10\p@ }}
\@writefile{lot}{\addvspace {10\p@ }}
\@writefile{toc}{\contentsline {subsection}{\numberline {}$<$T2$>$Disminuci\'on de costos}{168}}
\@writefile{toc}{\contentsline {subsection}{\numberline {}$<$T2$>$Agilidad en la obtenci\'on de resultados}{170}}
\@writefile{toc}{\contentsline {subsection}{\numberline {}$<$T2$>$Confiabilidad de los actores}{171}}
\@writefile{toc}{\contentsline {subsection}{\numberline {}$<$T2$>$Votos blancos y nulos: expresi\'on leg\IeC {\'\i }tima del ciudadano}{174}}
\@writefile{toc}{\contentsline {subsection}{\numberline {}$<$T2$>$Experiencias internacionales}{175}}
\@writefile{toc}{\contentsline {chapter}{$<$T1$>$Ap\'endice D. Traducci\'on de herramientas para revaloraci\'on y rescate de la lectura tradicional}{179}}
\@writefile{lof}{\addvspace {10\p@ }}
\@writefile{lot}{\addvspace {10\p@ }}
\@writefile{toc}{\contentsline {subsection}{\numberline {}$<$T2$>$Exposici\'on}{179}}
\@writefile{toc}{\contentsline {subsection}{\numberline {}$<$T2$>$Sesi\'on de preguntas y respuestas}{185}}
\@writefile{toc}{\contentsline {subsection}{\numberline {}$<$T2$>$Referencias}{191}}
