\relax 
\catcode`"\active
\catcode`<\active
\catcode`>\active
\@nameuse{es@quoting}
\catcode`'\active
\select@language{spanish}
\@writefile{toc}{\select@language{spanish}}
\@writefile{lof}{\select@language{spanish}}
\@writefile{lot}{\select@language{spanish}}
\@writefile{toc}{\contentsline {chapter}{Introducci\'on}{7}}
\@writefile{toc}{\contentsline {section}{\numberline {}El proyecto}{8}}
\@writefile{toc}{\contentsline {section}{\numberline {}Forma de trabajo}{8}}
\@writefile{toc}{\contentsline {subsection}{\numberline {}Esquema de colaboraci\'on}{8}}
\@writefile{toc}{\contentsline {subsection}{\numberline {}Manejo de referencias}{10}}
\@writefile{toc}{\contentsline {section}{\numberline {}Implementaci\'on t\'ecnica}{11}}
\@writefile{toc}{\contentsline {section}{\numberline {}Acerca de los autores}{14}}
\@writefile{toc}{\contentsline {subsection}{\numberline {}Beatriz Busaniche (Argentina)}{14}}
\@writefile{toc}{\contentsline {subsection}{\numberline {}H\'ector Colina (Venezuela)}{15}}
\@writefile{toc}{\contentsline {subsection}{\numberline {}Carolina Flores (Costa Rica)}{15}}
\@writefile{toc}{\contentsline {subsection}{\numberline {}Antonio Galindo (M\'exico)}{16}}
\@writefile{toc}{\contentsline {subsection}{\numberline {}Alejandro Miranda (M\'exico)}{16}}
\@writefile{toc}{\contentsline {subsection}{\numberline {}Sergio Ord\'o\~nez (M\'exico)}{16}}
\@writefile{toc}{\contentsline {subsection}{\numberline {}Lila Pagola (Argentina)}{17}}
\@writefile{toc}{\contentsline {subsection}{\numberline {}Marko Txopitea (Euskal Herria)}{17}}
\@writefile{toc}{\contentsline {subsection}{\numberline {}\'Erika Valverde (Costa Rica)}{17}}
\@writefile{toc}{\contentsline {subsection}{\numberline {}Gunnar Wolf (M\'exico)}{18}}
\@writefile{toc}{\contentsline {part}{I\hspace  {1em}Parte I. Software y medios libres}{19}}
\@writefile{toc}{\contentsline {chapter}{Software libre y construcci\'on democr\'atica de la sociedad}{21}}
\@writefile{lof}{\addvspace {10\p@ }}
\@writefile{lot}{\addvspace {10\p@ }}
\@writefile{toc}{\contentsline {subsection}{\numberline {}$<$T2$>$Introducci\'on}{21}}
\@writefile{toc}{\contentsline {paragraph}{$<$T3$>$La historia del conocimiento}{22}}
\@writefile{toc}{\contentsline {paragraph}{$<$T3$>$El c\'omputo como expresi\'on del conocimiento}{24}}
\@writefile{toc}{\contentsline {paragraph}{$<$T3$>$\IeC {\textquestiondown }Qu\'e es una sociedad democr\'atica?}{26}}
\@writefile{toc}{\contentsline {paragraph}{$<$T3$>$Del software al conocimiento}{29}}
\@writefile{toc}{\contentsline {subsection}{\numberline {}$<$T2$>$El software libre en tanto movimiento social}{31}}
\@writefile{toc}{\contentsline {subsection}{\numberline {}$<$T2$>$Conclusiones}{35}}
\@writefile{toc}{\contentsline {chapter}{$<$T1$>$Esquemas permisivos de licenciamiento en la creaci\'on art\IeC {\'\i }stica}{37}}
\@writefile{lof}{\addvspace {10\p@ }}
\@writefile{lot}{\addvspace {10\p@ }}
\@writefile{toc}{\contentsline {subsection}{\numberline {}$<$T2$>$Introducci\'on}{37}}
\@writefile{toc}{\contentsline {subsection}{\numberline {}$<$T2$>$Posiciones respecto de los derechos de autor y de copia en el arte}{39}}
\@writefile{toc}{\contentsline {paragraph}{$<$T3$>$Actitud copyleft en el arte}{41}}
\@writefile{toc}{\contentsline {paragraph}{$<$T3$>$Reacciones desde la industria cultural y las gestoras de derechos de autor}{42}}
\@writefile{toc}{\contentsline {subsection}{\numberline {}$<$T2$>$Cr\IeC {\'\i }tica a la noci\'on de autor: antecedentes en la historia del arte}{42}}
\@writefile{toc}{\contentsline {subsection}{\numberline {}$<$T2$>$Efecto copyleft avant la lettre: c\'omo explicar el copyleft cuando todos lo practicamos}{43}}
\@writefile{toc}{\contentsline {paragraph}{$<$T3$>$1984, m\'as ac\'a de Orwell: Stallman y Jobs}{44}}
\@writefile{toc}{\contentsline {paragraph}{$<$T3$>$Los problemas de la naturalizaci\'on: el doble est\'andar}{47}}
\@writefile{toc}{\contentsline {paragraph}{$<$T3$>$La extra\~neza en la discusi\'on sobre el copyleft}{48}}
\@writefile{toc}{\contentsline {paragraph}{$<$T3$>$Efecto performativo del copyleft}{49}}
\@writefile{toc}{\contentsline {subsection}{\numberline {}$<$T2$>$Convergencia de ideas en los modelos alternativos de circulaci\'on que propone el movimiento de software libre desde otras \'areas de la producci\'on cultural}{51}}
\@writefile{toc}{\contentsline {paragraph}{$<$T3$>$Potenciales de convergencia en una \'epoca de redefiniciones}{51}}
\@writefile{toc}{\contentsline {paragraph}{$<$T4$>$La afinidad ideol\'ogica de las propuestas: develar el desconocimiento mutuo}{52}}
\@writefile{toc}{\contentsline {paragraph}{$<$T4$>$Propuestas y proyecciones}{54}}
\@writefile{toc}{\contentsline {paragraph}{$<$T4$>$Sobre las distancias autor-receptor}{54}}
\@writefile{toc}{\contentsline {paragraph}{$<$T3$>$Aspectos en debate sobre las licencias permisivas en el arte}{55}}
\@writefile{toc}{\contentsline {paragraph}{$<$T4$>$Diversidad y calidad de las obras de libre circulaci\'on}{55}}
\@writefile{toc}{\contentsline {paragraph}{$<$T4$>$Puntos problem\'aticos para los autores en las licencias permisivas}{55}}
\@writefile{toc}{\contentsline {paragraph}{$<$T4$>$Desconocimiento del copyright y, por extensi\'on, errores de interpretaci\'on sobre el copyleft}{56}}
\@writefile{toc}{\contentsline {paragraph}{$<$T4$>$Desinter\'es por la mara\~na t\'ecnico-legal}{56}}
\@writefile{toc}{\contentsline {paragraph}{$<$T4$>$Usos comerciales}{57}}
\@writefile{toc}{\contentsline {paragraph}{$<$T4$>$Obras derivadas}{58}}
\@writefile{toc}{\contentsline {paragraph}{$<$T4$>$La obra derivada sin control: o la preocupaci\'on por evitar ``ciertas'' derivaciones}{59}}
\@writefile{toc}{\contentsline {chapter}{$<$T1$>$Fundamentos te\'oricos y ubicaci\'on hist\'orica de la econom\IeC {\'\i }a y sociedad del conocimiento}{61}}
\@writefile{lof}{\addvspace {10\p@ }}
\@writefile{lot}{\addvspace {10\p@ }}
\@writefile{toc}{\contentsline {subsection}{\numberline {}$<$T2$>$Introducci\'on}{61}}
\@writefile{toc}{\contentsline {subsection}{\numberline {}$<$T2$>$Econom\IeC {\'\i }a y sociedad del conocimiento}{62}}
\@writefile{toc}{\contentsline {subsection}{\numberline {}$<$T2$>$V\IeC {\'\i }as de desarrollo de los embriones de la sociedad del conocimiento}{67}}
\@writefile{toc}{\contentsline {subsection}{\numberline {}$<$T2$>$\IeC {\textquestiondown }Hacia una sociedad del conocimiento inclusiva y participativa?}{71}}
\@writefile{toc}{\contentsline {subsection}{\numberline {}$<$T2$>$Referencias}{78}}
\@writefile{toc}{\contentsline {chapter}{$<$T\IeC {\'\i }tulo de secci\'on$>$Parte II. Comunidades}{83}}
\@writefile{lof}{\addvspace {10\p@ }}
\@writefile{lot}{\addvspace {10\p@ }}
\@writefile{toc}{\contentsline {chapter}{$<$T1$>$Factores de motivaci\'on y elementos de reconocimiento}{85}}
\@writefile{lof}{\addvspace {10\p@ }}
\@writefile{lot}{\addvspace {10\p@ }}
\@writefile{toc}{\contentsline {subsection}{\numberline {}$<$T2$>$Factores de motivaci\'on}{86}}
\@writefile{toc}{\contentsline {paragraph}{$<$T3$>$La programaci\'on como un acto de belleza o de arte}{86}}
\@writefile{toc}{\contentsline {paragraph}{$<$T3$>$Programar por diversi\'on}{88}}
\@writefile{toc}{\contentsline {paragraph}{$<$T3$>$Semillero de interacciones sociales}{89}}
\@writefile{toc}{\contentsline {paragraph}{$<$T3$>$Enfatizando en las ventajas del modelo distribuido, descentralizado de desarrollo}{90}}
\@writefile{toc}{\contentsline {paragraph}{$<$T3$>$La econom\IeC {\'\i }a del regalo}{94}}
\@writefile{toc}{\contentsline {paragraph}{$<$T3$>$Impulso \'etico-ideol\'ogico}{95}}
\@writefile{toc}{\contentsline {paragraph}{$<$T3$>$Incidencia del proyecto en un \'area de inter\'es profesional}{97}}
\@writefile{toc}{\contentsline {subsection}{\numberline {}$<$T2$>$Elementos de identificaci\'on con la subcultura hacker}{97}}
\@writefile{toc}{\contentsline {subsection}{\numberline {}$<$T2$>$Paralelos en otros grupos creadores}{100}}
\@writefile{toc}{\contentsline {paragraph}{$<$T3$>$Paralelos con la comunidad cient\IeC {\'\i }fica}{100}}
\@writefile{toc}{\contentsline {paragraph}{$<$T3$>$Comunidades de creaci\'on art\IeC {\'\i }stica}{101}}
\@writefile{toc}{\contentsline {subsection}{\numberline {}$<$T2$>$Diferentes formas y niveles de participaci\'on}{103}}
\@writefile{toc}{\contentsline {subsection}{\numberline {}$<$T2$>$Jerarquizaci\'on de los individuos en la sociedad}{106}}
\@writefile{toc}{\contentsline {paragraph}{$<$T3$>$Sistemas de redes sociales}{106}}
\@writefile{toc}{\contentsline {subsection}{\numberline {}$<$T2$>$Conclusiones}{110}}
\@writefile{toc}{\contentsline {chapter}{$<$T1$>$La construcci\'on colaborativa del conocimiento desde la \'optica de las comunidades de software libre}{111}}
\@writefile{lof}{\addvspace {10\p@ }}
\@writefile{lot}{\addvspace {10\p@ }}
\@writefile{toc}{\contentsline {subsection}{\numberline {}$<$T2$>$Introducci\'on}{112}}
\@writefile{toc}{\contentsline {subsection}{\numberline {}$<$T2$>$Tecnolog\IeC {\'\i }a y comunidades de software libre}{112}}
\@writefile{toc}{\contentsline {paragraph}{$<$T3$>$Repensar la tecnolog\IeC {\'\i }a}{113}}
\@writefile{toc}{\contentsline {subsection}{\numberline {}$<$T2$>$El conocimiento es un hecho social}{114}}
\@writefile{toc}{\contentsline {subsection}{\numberline {}$<$T2$>$Comunidades de software libre}{114}}
\@writefile{toc}{\contentsline {subsection}{\numberline {}$<$T2$>$Elementos para entender las comunidades de software libre}{115}}
\@writefile{toc}{\contentsline {subsection}{\numberline {}$<$T2$>$Referencias}{115}}
\@writefile{toc}{\contentsline {chapter}{$<$T\IeC {\'\i }tulo de secci\'on$>$Parte III. Sociedad}{119}}
\@writefile{lof}{\addvspace {10\p@ }}
\@writefile{lot}{\addvspace {10\p@ }}
\@writefile{toc}{\contentsline {chapter}{$<$T1$>$Pol\IeC {\'\i }tica 2.0}{121}}
\@writefile{lof}{\addvspace {10\p@ }}
\@writefile{lot}{\addvspace {10\p@ }}
\@writefile{toc}{\contentsline {subsection}{\numberline {}$<$T2$>$Introducci\'on}{121}}
\@writefile{toc}{\contentsline {subsection}{\numberline {}$<$T2$>$Una definici\'on de pol\IeC {\'\i }tica 2.0}{124}}
\@writefile{toc}{\contentsline {subsection}{\numberline {}$<$T2$>$Algunas iniciativas locales}{126}}
\@writefile{toc}{\contentsline {paragraph}{$<$T3$>$Politika 2.0}{127}}
\@writefile{toc}{\contentsline {paragraph}{$<$T3$>$Colabora en nuestras ciudades}{127}}
\@writefile{toc}{\contentsline {paragraph}{$<$T3$>$Ciudadanos2010}{127}}
\@writefile{toc}{\contentsline {paragraph}{$<$T3$>$Parlio}{127}}
\@writefile{toc}{\contentsline {paragraph}{$<$T3$>$Ezker Batua Berdeak}{128}}
\@writefile{toc}{\contentsline {paragraph}{$<$T3$>$Neskateka}{128}}
\@writefile{toc}{\contentsline {paragraph}{$<$T3$>$arreglaMicalle}{129}}
\@writefile{toc}{\contentsline {paragraph}{$<$T3$>$Queremos software libre}{129}}
\@writefile{toc}{\contentsline {paragraph}{$<$T3$>$Sindominio}{129}}
\@writefile{toc}{\contentsline {paragraph}{$<$T3$>$Indymedia}{129}}
\@writefile{toc}{\contentsline {paragraph}{$<$T3$>$Hacktivistas}{130}}
\@writefile{toc}{\contentsline {paragraph}{$<$T3$>$Partido Pirata}{131}}
\@writefile{toc}{\contentsline {paragraph}{$<$T3$>$Partido de Internet}{131}}
\@writefile{toc}{\contentsline {paragraph}{$<$T3$>$Irekia}{132}}
\@writefile{toc}{\contentsline {subsection}{\numberline {}$<$T2$>$Conclusiones}{132}}
\@writefile{toc}{\contentsline {paragraph}{$<$T3$>$ Caracter\IeC {\'\i }sticas comunes}{133}}
\@writefile{toc}{\contentsline {paragraph}{$<$T3$>$Tipos de grupos}{134}}
\@writefile{toc}{\contentsline {chapter}{$<$T1$>$Analfabetizaci\'on inform\'atica o \IeC {\textquestiondown }por qu\'e los programas privativos fomentan la analfabetizaci\'on?}{137}}
\@writefile{lof}{\addvspace {10\p@ }}
\@writefile{lot}{\addvspace {10\p@ }}
\@writefile{toc}{\contentsline {subsection}{\numberline {}$<$T2$>$Introducci\'on}{137}}
\@writefile{toc}{\contentsline {subsection}{\numberline {}$<$T2$>$\IeC {\textquestiondown }Qu\'e entendemos por alfabetizaci\'on?}{139}}
\@writefile{toc}{\contentsline {subsection}{\numberline {}$<$T2$>$Contenido y estructura}{140}}
\@writefile{toc}{\contentsline {subsection}{\numberline {}$<$T2$>$El futuro en el jard\IeC {\'\i }n de infantes}{141}}
\@writefile{toc}{\contentsline {subsection}{\numberline {}$<$T2$>$Perspectivas y propuestas}{143}}
\@writefile{toc}{\contentsline {chapter}{$<$T1$>$Construyendo metodolog\IeC {\'\i }as para la infoinclusi\'on}{147}}
\@writefile{lof}{\addvspace {10\p@ }}
\@writefile{lot}{\addvspace {10\p@ }}
\@writefile{toc}{\contentsline {subsection}{\numberline {}$<$T2$>$Punto de encuentro: la infoinclusi\'on}{148}}
\@writefile{toc}{\contentsline {subsection}{\numberline {}$<$T2$>$La historia personal y organizativa}{153}}
\@writefile{toc}{\contentsline {subsection}{\numberline {}$<$T2$>$El enfoque de g\'enero}{156}}
\@writefile{toc}{\contentsline {subsection}{\numberline {}$<$T2$>$Experiencias}{158}}
\@writefile{toc}{\contentsline {paragraph}{$<$T3$>$Usos estrat\'egicos de internet con campesinos }{158}}
\@writefile{toc}{\contentsline {paragraph}{$<$T3$>$Manejo seguro de la informaci\'on con dos organizaciones que trabajan en derechos humanos}{163}}
\@writefile{toc}{\contentsline {subsection}{\numberline {}$<$T2$>$Notas finales}{168}}
\@writefile{toc}{\contentsline {subsection}{\numberline {}$<$T2$>$Referencias}{169}}
\@writefile{toc}{\contentsline {chapter}{$<$T\IeC {\'\i }tulo de secci\'on$>$Parte IV. Ap\'endices}{173}}
\@writefile{lof}{\addvspace {10\p@ }}
\@writefile{lot}{\addvspace {10\p@ }}
\@writefile{toc}{\contentsline {chapter}{$<$T1$>$Ap\'endice A. Educaci\'on y software libre}{175}}
\@writefile{lof}{\addvspace {10\p@ }}
\@writefile{lot}{\addvspace {10\p@ }}
\@writefile{toc}{\contentsline {subsection}{\numberline {}$<$T2$>$ Eje tecnol\'ogico}{177}}
\@writefile{toc}{\contentsline {paragraph}{$<$T3$>$\IeC {\textquestiondown }Software libre en la educaci\'on o educaci\'on con software libre?}{177}}
\@writefile{toc}{\contentsline {paragraph}{$<$T3$>$Argumentos del eje tecnol\'ogico, de la ingenuidad educativa}{180}}
\@writefile{toc}{\contentsline {subsection}{\numberline {}$<$T2$>$Eje \'etico y cognitivo, el software libre como herramienta del pensamiento humano}{182}}
\@writefile{toc}{\contentsline {paragraph}{$<$T3$>$De vuelta a lo importante, la educaci\'on}{182}}
\@writefile{toc}{\contentsline {paragraph}{$<$T3$>$Educaci\'on camino a los bienes comunes}{183}}
\@writefile{toc}{\contentsline {paragraph}{$<$T3$>$De la cultura libre a la educaci\'on libre}{188}}
\@writefile{toc}{\contentsline {paragraph}{$<$T3$>$Bienes culturales libres: dibujando el futuro}{191}}
\@writefile{toc}{\contentsline {chapter}{$<$T1$>$Ap\'endice B. Sugar}{193}}
\@writefile{lof}{\addvspace {10\p@ }}
\@writefile{lot}{\addvspace {10\p@ }}
\@writefile{toc}{\contentsline {subsection}{\numberline {}$<$T2$>$Construccionismo: un enfoque educativo centrado en el aprendiz}{193}}
\@writefile{toc}{\contentsline {subsection}{\numberline {}$<$T2$>$Los ni\~nos no son oficinistas}{196}}
\@writefile{toc}{\contentsline {subsection}{\numberline {}$<$T2$>$Actividades para construir y compartir}{198}}
\@writefile{toc}{\contentsline {subsection}{\numberline {}$<$T2$>$Abramos la educaci\'on}{201}}
\@writefile{toc}{\contentsline {subsection}{\numberline {}$<$T2$>$Evidencia}{204}}
\@writefile{toc}{\contentsline {subsection}{\numberline {}$<$T2$>$Sugar y su implementaci\'on en escuelas}{207}}
\@writefile{toc}{\contentsline {subsection}{\numberline {}$<$T2$>$Cierre}{209}}
\@writefile{toc}{\contentsline {chapter}{$<$T1$>$Ap\'endice C. Voto electr\'onico: \IeC {\textquestiondown }Qui\'en tiene realmente la decisi\'on?}{211}}
\@writefile{lof}{\addvspace {10\p@ }}
\@writefile{lot}{\addvspace {10\p@ }}
\@writefile{toc}{\contentsline {subsection}{\numberline {}$<$T2$>$Disminuci\'on de costos}{213}}
\@writefile{toc}{\contentsline {subsection}{\numberline {}$<$T2$>$Agilidad en la obtenci\'on de resultados}{215}}
\@writefile{toc}{\contentsline {subsection}{\numberline {}$<$T2$>$Confiabilidad de los actores}{217}}
\@writefile{toc}{\contentsline {subsection}{\numberline {}$<$T2$>$Votos blancos y nulos: expresi\'on leg\IeC {\'\i }tima del ciudadano}{220}}
\@writefile{toc}{\contentsline {subsection}{\numberline {}$<$T2$>$Experiencias internacionales}{221}}
\@writefile{toc}{\contentsline {chapter}{$<$T1$>$Ap\'endice D. Traducci\'on de herramientas para revaloraci\'on y rescate de la lectura tradicional}{225}}
\@writefile{lof}{\addvspace {10\p@ }}
\@writefile{lot}{\addvspace {10\p@ }}
\@writefile{toc}{\contentsline {subsection}{\numberline {}$<$T2$>$Exposici\'on}{225}}
\@writefile{toc}{\contentsline {subsection}{\numberline {}$<$T2$>$Sesi\'on de preguntas y respuestas}{233}}
\@writefile{toc}{\contentsline {subsection}{\numberline {}$<$T2$>$Referencias}{241}}
